\relax 
\@writefile{toc}{\contentsline {section}{\numberline {1}Introduzione}{1}}
\@writefile{toc}{\contentsline {subsection}{\numberline {1.1}Scopo del documento}{1}}
\@writefile{toc}{\contentsline {subsection}{\numberline {1.2}Ambito applicativo}{1}}
\@writefile{toc}{\contentsline {subsection}{\numberline {1.3}Definizioni, acronimi e abbreviazioni}{2}}
\@writefile{toc}{\contentsline {subsection}{\numberline {1.4}Riferimenti}{3}}
\@writefile{toc}{\contentsline {subsubsection}{\numberline {1.4.1}Telegram}{3}}
\@writefile{lof}{\contentsline {figure}{\numberline {1}{\ignorespaces Logo telegram}}{3}}
\@writefile{toc}{\contentsline {subsubsection}{\numberline {1.4.2}DBpedia}{3}}
\@writefile{lof}{\contentsline {figure}{\numberline {2}{\ignorespaces Logo dbpedia}}{3}}
\@writefile{toc}{\contentsline {subsection}{\numberline {1.5}Panoramica del documento}{4}}
\@writefile{toc}{\contentsline {section}{\numberline {2}Descrizione generale}{5}}
\@writefile{toc}{\contentsline {subsection}{\numberline {2.1}Prospetto del prodotto}{5}}
\@writefile{lof}{\contentsline {figure}{\numberline {3}{\ignorespaces Struttura modulare del sistema \textit  {BRRA}}}{6}}
\@writefile{toc}{\contentsline {subsubsection}{\numberline {2.1.1}Interfaccia utente}{7}}
\@writefile{toc}{\contentsline {subsubsection}{\numberline {2.1.2}Interfacce software}{7}}
\@writefile{toc}{\contentsline {subsection}{\numberline {2.2}Funzionalit\IeC {\`a} del software}{7}}
\@writefile{toc}{\contentsline {subsubsection}{\numberline {2.2.1}Obiettivi funzionali di base}{7}}
\@writefile{lof}{\contentsline {figure}{\numberline {4}{\ignorespaces Esempio di interfaccia utente}}{8}}
\@writefile{toc}{\contentsline {subsection}{\numberline {2.3}Caratteristiche degli utenti e scenari di utilizzo}{9}}
\@writefile{toc}{\contentsline {subsubsection}{\numberline {2.3.1}Utenti del sistema}{9}}
\@writefile{toc}{\contentsline {subsubsection}{\numberline {2.3.2}Scenari di utilizzo}{9}}
\@writefile{toc}{\contentsline {subsection}{\numberline {2.4}Assunzioni e dipendenze}{11}}
\@writefile{toc}{\contentsline {section}{\numberline {3}Requisiti specifici}{12}}
\@writefile{toc}{\contentsline {subsection}{\numberline {3.1}Modello di dominio}{12}}
\@writefile{lof}{\contentsline {figure}{\numberline {5}{\ignorespaces Modello di dominio}}{12}}
\@writefile{toc}{\contentsline {subsection}{\numberline {3.2}Requisiti funzionali}{13}}
\@writefile{toc}{\contentsline {subsubsection}{\numberline {3.2.1}Analizza immagine}{13}}
\@writefile{toc}{\contentsline {subsubsection}{\numberline {3.2.2}Analizza testo}{13}}
\@writefile{toc}{\contentsline {subsubsection}{\numberline {3.2.3}Ricerca libro}{13}}
\@writefile{toc}{\contentsline {subsubsection}{\numberline {3.2.4}Ricerca libri correlati}{14}}
\@writefile{toc}{\contentsline {subsubsection}{\numberline {3.2.5}Backup giornaliero}{14}}
\@writefile{toc}{\contentsline {subsubsection}{\numberline {3.2.6}Ripristino avvio}{15}}
\@writefile{toc}{\contentsline {subsubsection}{\numberline {3.2.7}Memorizza cronologia}{15}}
\@writefile{toc}{\contentsline {subsubsection}{\numberline {3.2.8}Navigazione cronologia}{15}}
\@writefile{toc}{\contentsline {subsubsection}{\numberline {3.2.9}Ricerca libri pi\IeC {\`u} ricercati}{16}}
\@writefile{toc}{\contentsline {subsubsection}{\numberline {3.2.10}Crea link di acquisto}{16}}
\@writefile{toc}{\contentsline {subsubsection}{\numberline {3.2.11}Integrazione informazioni}{17}}
\@writefile{toc}{\contentsline {subsubsection}{\numberline {3.2.12}Gestore servizio amministratori}{17}}
\@writefile{toc}{\contentsline {subsubsection}{\numberline {3.2.13}Backup titoli}{17}}
\@writefile{toc}{\contentsline {subsubsection}{\numberline {3.2.14}Ripristino titoli}{18}}
\@writefile{toc}{\contentsline {subsubsection}{\numberline {3.2.15}Backup utenti}{18}}
\@writefile{toc}{\contentsline {subsubsection}{\numberline {3.2.16}Ripristino utenti}{18}}
\@writefile{toc}{\contentsline {subsubsection}{\numberline {3.2.17}Elimina database utenti}{19}}
\@writefile{toc}{\contentsline {subsubsection}{\numberline {3.2.18}Visualizza statistiche}{19}}
\@writefile{toc}{\contentsline {subsection}{\numberline {3.3}Requisiti interfaccia esterna}{20}}
\@writefile{toc}{\contentsline {subsection}{\numberline {3.4}Vincoli di progettazione}{20}}
\@writefile{toc}{\contentsline {subsection}{\numberline {3.5}Requisiti non funzionali}{20}}
\@writefile{toc}{\contentsline {subsubsection}{\numberline {3.5.1}Requisiti di performance}{20}}
\@writefile{toc}{\contentsline {subsubsection}{\numberline {3.5.2}Attributi di qualit\IeC {\`a} del software}{21}}
