\relax 
\providecommand \oddpage@label [2]{}
\@writefile{toc}{\contentsline {section}{\numberline {1}Introduzione}{1}}
\@writefile{toc}{\contentsline {section}{\numberline {2}Architettura del problema}{2}}
\@writefile{toc}{\contentsline {subsection}{\numberline {2.1}Casi d'uso}{2}}
\@writefile{lof}{\contentsline {figure}{\numberline {1}{\ignorespaces Diagramma dei casi d'uso}}{2}}
\@writefile{toc}{\contentsline {subsection}{\numberline {2.2}Modello dei Dati}{3}}
\@writefile{lof}{\contentsline {figure}{\numberline {2}{\ignorespaces Modello dei dati}}{3}}
\@writefile{toc}{\contentsline {subsection}{\numberline {2.3}Diagrammi delle attivit\IeC {\`a}}{4}}
\@writefile{toc}{\contentsline {subsubsection}{\numberline {2.3.1}Ricerca per immagine}{5}}
\@writefile{lof}{\contentsline {figure}{\numberline {3}{\ignorespaces Ricerca per immagine}}{5}}
\@writefile{toc}{\contentsline {subsubsection}{\numberline {2.3.2}Ricerca per informazione}{5}}
\@writefile{lof}{\contentsline {figure}{\numberline {4}{\ignorespaces Ricerca per informazione}}{5}}
\@writefile{toc}{\contentsline {subsubsection}{\numberline {2.3.3}Ricerca database info}{6}}
\@writefile{lof}{\contentsline {figure}{\numberline {5}{\ignorespaces Ricerca database info}}{6}}
\@writefile{toc}{\contentsline {subsubsection}{\numberline {2.3.4}Compra titolo}{7}}
\@writefile{lof}{\contentsline {figure}{\numberline {6}{\ignorespaces Compra titolo}}{7}}
\@writefile{toc}{\contentsline {subsubsection}{\numberline {2.3.5}Visualizza pi\IeC {\`u} ricercati}{7}}
\@writefile{lof}{\contentsline {figure}{\numberline {7}{\ignorespaces Ricerca per immagine}}{7}}
\@writefile{toc}{\contentsline {subsubsection}{\numberline {2.3.6}Aggiorna pi\IeC {\`u} ricercati}{8}}
\@writefile{lof}{\contentsline {figure}{\numberline {8}{\ignorespaces Aggiorna pi\IeC {\`u} ricercati}}{8}}
\@writefile{toc}{\contentsline {subsubsection}{\numberline {2.3.7}Backup automatico}{8}}
\@writefile{lof}{\contentsline {figure}{\numberline {9}{\ignorespaces Backup automatico}}{8}}
\@writefile{toc}{\contentsline {subsubsection}{\numberline {2.3.8}Backup manuale}{9}}
\@writefile{lof}{\contentsline {figure}{\numberline {10}{\ignorespaces Backup manuale}}{9}}
\@writefile{toc}{\contentsline {subsubsection}{\numberline {2.3.9}Ripristina backup}{9}}
\@writefile{lof}{\contentsline {figure}{\numberline {11}{\ignorespaces Ripristina backup}}{9}}
\@writefile{toc}{\contentsline {subsubsection}{\numberline {2.3.10}Visualizza statistiche}{10}}
\@writefile{lof}{\contentsline {figure}{\numberline {12}{\ignorespaces Visualizza statistiche}}{10}}
\@writefile{toc}{\contentsline {section}{\numberline {3}Architettura logica}{11}}
\@writefile{toc}{\contentsline {subsection}{\numberline {3.1}Partizionamento delle funzionalit\IeC {\`a}}{11}}
\@writefile{lof}{\contentsline {figure}{\numberline {13}{\ignorespaces Partizionamento delle funzionalit\IeC {\`a}}}{11}}
\@writefile{toc}{\contentsline {subsubsection}{\numberline {3.1.1}Gestore amministrazione}{12}}
\@writefile{lof}{\contentsline {figure}{\numberline {14}{\ignorespaces Gestore amministrazione}}{12}}
\@writefile{lot}{\contentsline {table}{\numberline {1}{\ignorespaces Gestore amministrazione}}{12}}
\@writefile{toc}{\contentsline {subsubsection}{\numberline {3.1.2}Gestore richieste}{13}}
\@writefile{lof}{\contentsline {figure}{\numberline {15}{\ignorespaces Gestore richieste}}{13}}
\@writefile{lot}{\contentsline {table}{\numberline {2}{\ignorespaces Gestore richieste}}{13}}
\@writefile{toc}{\contentsline {subsubsection}{\numberline {3.1.3}Gestore DB}{14}}
\@writefile{lof}{\contentsline {figure}{\numberline {16}{\ignorespaces Gestore DB}}{14}}
\@writefile{lot}{\contentsline {table}{\numberline {3}{\ignorespaces Gestore DB}}{15}}
\@writefile{toc}{\contentsline {subsection}{\numberline {3.2}Footprint del partizionamento}{15}}
\@writefile{lot}{\contentsline {table}{\numberline {4}{\ignorespaces Footprint}}{15}}
\@writefile{lof}{\contentsline {figure}{\numberline {17}{\ignorespaces Grafico di footprint}}{15}}
\@writefile{toc}{\contentsline {section}{\numberline {4}Architettura Concreta}{16}}
\@writefile{toc}{\contentsline {subsection}{\numberline {4.1}Diagrammi di sequenza}{16}}
\@writefile{toc}{\contentsline {subsubsection}{\numberline {4.1.1}Ricerca per immagine}{16}}
\@writefile{lof}{\contentsline {figure}{\numberline {18}{\ignorespaces Ricerca per immagine}}{16}}
\@writefile{toc}{\contentsline {subsubsection}{\numberline {4.1.2}Ricerca per informazione}{17}}
\@writefile{lof}{\contentsline {figure}{\numberline {19}{\ignorespaces Ricerca per informazione}}{17}}
\@writefile{toc}{\contentsline {subsubsection}{\numberline {4.1.3}Ricerca database info}{17}}
\@writefile{lof}{\contentsline {figure}{\numberline {20}{\ignorespaces Ricerca database info}}{17}}
\@writefile{toc}{\contentsline {subsubsection}{\numberline {4.1.4}Compra titolo}{18}}
\@writefile{lof}{\contentsline {figure}{\numberline {21}{\ignorespaces Compra titolo}}{18}}
\@writefile{toc}{\contentsline {subsubsection}{\numberline {4.1.5}Visualizza pi\IeC {\`u} ricercati}{18}}
\@writefile{lof}{\contentsline {figure}{\numberline {22}{\ignorespaces Ricerca per immagine}}{18}}
\@writefile{toc}{\contentsline {subsubsection}{\numberline {4.1.6}Aggiorna pi\IeC {\`u} ricercati}{19}}
\@writefile{lof}{\contentsline {figure}{\numberline {23}{\ignorespaces Aggiorna pi\IeC {\`u} ricercati}}{19}}
\@writefile{toc}{\contentsline {subsubsection}{\numberline {4.1.7}Backup automatico}{19}}
\@writefile{lof}{\contentsline {figure}{\numberline {24}{\ignorespaces Backup automatico}}{19}}
\@writefile{toc}{\contentsline {subsubsection}{\numberline {4.1.8}Backup manuale}{20}}
\@writefile{lof}{\contentsline {figure}{\numberline {25}{\ignorespaces Backup manuale}}{20}}
\@writefile{toc}{\contentsline {subsubsection}{\numberline {4.1.9}Ripristina backup}{20}}
\@writefile{lof}{\contentsline {figure}{\numberline {26}{\ignorespaces Ripristina backup}}{20}}
\@writefile{toc}{\contentsline {subsubsection}{\numberline {4.1.10}Visualizza statistiche}{21}}
\@writefile{lof}{\contentsline {figure}{\numberline {27}{\ignorespaces Visualizza statistiche}}{21}}
\@writefile{toc}{\contentsline {section}{\numberline {5}Architettura di Deployment}{22}}
\@writefile{toc}{\contentsline {subsection}{\numberline {5.1}Diagramma di Deployment}{22}}
\@writefile{lof}{\contentsline {figure}{\numberline {28}{\ignorespaces Visualizza statistiche}}{22}}
